{
  "map": {
    "projection": "EPSG:3857",
    "units": "m",
    "center": {
      "x": -6854495,
      "y": 1370404,
      "crs": "EPSG:3857"
    },
    "zoom": 10,
    "maxExtent": [
      -20037508.34,
      -20037508.34,
      20037508.34,
      20037508.34
    ],
    "layers": [
      {
        "type": "osm",
        "title": "OpenStreetMap",
        "name": "mapnik",
        "source": "osm",
        "group": "background",
        "visibility": true
      },
      {
        "source": "ol",
        "group": "background",
        "title": "Empty Background",
        "fixed": true,
        "visibility": false,
        "type": "empty"
      }
    ]
  }
}
