{
  "encodings": [
    {
      "label": "UTF-8",
      "value": "UTF-8"
    },
    {
      "label": "ISO-8859-1",
      "value": "ISO-8859-1"
    }
  ],
  "projections": [
    {
      "label": "WGS84",
      "value": "EPSG:4326"
    },
    {
      "label": "Web Mercator",
      "value": "EPSG:3857"
    },
    {
      "label": "UTM Zone 20N",
      "value": "EPSG:32620"
    },
    {
      "label": "Grenada 1953 / British West Indies Grid",
      "value": "EPSG:2003"
    }
  ],
  "thesaurusUrl": "https://grennode.gov.gd/geonetwork/srv/api/registries/vocabularies/search?type=CONTAINS&thesaurus=external.theme.httpinspireeceuropaeutheme-theme&rows=200&q=${q}&uri=**&lang=${lang}"
}
